<?xml version="1.0" encoding="UTF-8" standalone="no"?>
<svg
   xmlns:dc="http://purl.org/dc/elements/1.1/"
   xmlns:cc="http://creativecommons.org/ns#"
   xmlns:rdf="http://www.w3.org/1999/02/22-rdf-syntax-ns#"
   xmlns:svg="http://www.w3.org/2000/svg"
   xmlns="http://www.w3.org/2000/svg"
   xmlns:sodipodi="http://sodipodi.sourceforge.net/DTD/sodipodi-0.dtd"
   xmlns:inkscape="http://www.inkscape.org/namespaces/inkscape"
   version="1.1"
   width="24"
   height="24"
   viewBox="0 0 24 24"
   id="svg2"
   inkscape:version="0.91 r13725"
   sodipodi:docname="headlights_off.svg">
  <metadata
     id="metadata10">
    <rdf:RDF>
      <cc:Work
         rdf:about="">
        <dc:format>image/svg+xml</dc:format>
        <dc:type
           rdf:resource="http://purl.org/dc/dcmitype/StillImage" />
        <dc:title />
      </cc:Work>
    </rdf:RDF>
  </metadata>
  <defs
     id="defs8" />
  <sodipodi:namedview
     pagecolor="#ffffff"
     bordercolor="#666666"
     borderopacity="1"
     objecttolerance="10"
     gridtolerance="10"
     guidetolerance="10"
     inkscape:pageopacity="0"
     inkscape:pageshadow="2"
     inkscape:window-width="1680"
     inkscape:window-height="988"
     id="namedview6"
     showgrid="true"
     inkscape:object-nodes="true"
     inkscape:zoom="27.812867"
     inkscape:cx="12.287637"
     inkscape:cy="11.712363"
     inkscape:window-x="-8"
     inkscape:window-y="-8"
     inkscape:window-maximized="1"
     inkscape:current-layer="svg2"
     inkscape:snap-bbox="true"
     inkscape:bbox-paths="false"
     inkscape:bbox-nodes="false">
    <inkscape:grid
       type="xygrid"
       id="grid4138" />
  </sodipodi:namedview>
  <path
     d="M 3.2695312,3 2,4.2695312 4.78125,7.0507812 C 3.689996,8.4182423 3.0351563,10.14963 3.0351562,12.035156 c 0,4.418278 3.5817225,8 7.9999998,8 L 13,20 13,15.269531 18.730469,21 20,19.730469 Z M 13,4 11.035156,4.0351562 c -1.221307,0 -2.3751976,0.2794121 -3.410156,0.7695313 L 13,10.179688 Z m 2,3 0,2 6,0 0,-2 z m 0,4 0,1.179688 L 15.820312,13 21,13 21,11 Z m 2.820312,4 2,2 L 21,17 21,15 Z"
     id="path4"
     inkscape:connector-curvature="0"
     sodipodi:nodetypes="cccsccccccccccccccccccccccccccc" />
</svg>
